<?xml version="1.0" encoding="utf-8"?>
<!-- Generator: Adobe Illustrator 21.0.0, SVG Export Plug-In . SVG Version: 6.00 Build 0)  -->
<svg width="87"  version="1.1" id="Слой_1" xmlns="http://www.w3.org/2000/svg" xmlns:xlink="http://www.w3.org/1999/xlink" x="0px" y="0px"
	 viewBox="0 0 86 72" style="enable-background:new 0 0 86 72;" xml:space="preserve">
<style type="text/css">
	.st0{fill:#38718E;stroke:#38718E;stroke-width:0.75;stroke-miterlimit:10;}
	.st1{fill:#38718E;}
</style>
<g>
	<path class="st0" d="M72.1,49.3C72.1,49.3,72.1,49.3,72.1,49.3l0.2-0.1l0.2,0c0.3,0,0.7,0,1,0c3.2,0,6.3-1.3,8.6-3.5
		c2.3-2.3,3.5-5.3,3.5-8.6c0-5.7-3.9-10.5-9.4-11.8l-0.8-0.2v-0.8v-0.3c0-6.3-2.5-12.3-6.9-16.8c-4.5-4.5-10.4-7-16.8-7h0
		c-8,0-15.4,4-19.8,10.6l-0.4,0.6l-0.7-0.2c-1.7-0.6-3.5-0.9-5.2-0.9c-7.1,0-13.4,4.5-15.6,11.3c-0.6,1.7-0.8,3.4-0.8,5.2v0.4v0.8
		l-0.7,0.2c-5.7,1.5-9.1,7.3-7.6,13c1.2,4.7,5.4,8,10.3,8h26.1c0.3,0,0.5-0.2,0.5-0.5c0-0.3-0.2-0.5-0.5-0.5H11
		c-5.4,0-9.7-4.4-9.7-9.8c0-4.8,3.6-8.9,8.3-9.6c0.3,0,0.4-0.3,0.4-0.5C10,28,10,27.5,10,27c0-8.6,7-15.5,15.6-15.5
		c2.1,0,4.1,0.4,6,1.2c0.1,0,0.1,0,0.2,0c0.2,0,0.3-0.1,0.4-0.2C36.2,5.6,43.7,1.3,51.7,1.3c4.1,0,8.1,1.1,11.6,3.2
		c6.9,4.1,11.2,11.6,11.2,19.6c0,0.6,0,1-0.1,1.5c0,0.3,0.2,0.5,0.4,0.5c6.1,0.8,10.5,6.3,9.7,12.5c-0.7,5.6-5.4,9.8-11.1,9.8
		c0,0,0,0,0,0c-0.5,0-1,0-1.4-0.1c0,0,0,0,0,0c-0.1,0-0.1,0-0.1,0l-0.2,0.1h-0.2H48.8c-0.3,0-0.5,0.2-0.5,0.5c0,0.3,0.2,0.5,0.5,0.5
		H72.1z"/>
	<path class="st1" d="M58.2,57.6c0.3-0.3,0.3-0.8,0-1.1c-0.3-0.3-0.8-0.3-1.1,0L44.2,69.3v-29c0-0.4-0.4-0.8-0.8-0.8
		c-0.4,0-0.8,0.4-0.8,0.8v29L29.8,56.5c-0.2-0.2-0.4-0.2-0.6-0.2s-0.4,0.1-0.6,0.2c-0.3,0.3-0.3,0.8,0,1.1l14.2,14.2
		c0.1,0.1,0.2,0.1,0.3,0.2c0.2,0.1,0.4,0.1,0.6,0c0.1,0,0.2-0.1,0.3-0.2L58.2,57.6z"/>
</g>
</svg>
