<?xml version="1.0" encoding="utf-8"?>
<!-- Generator: Adobe Illustrator 21.0.0, SVG Export Plug-In . SVG Version: 6.00 Build 0)  -->
<svg width="56" version="1.1" id="Слой_1" xmlns="http://www.w3.org/2000/svg" xmlns:xlink="http://www.w3.org/1999/xlink" x="0px" y="0px"
	 viewBox="0 0 55.7 76.4" style="enable-background:new 0 0 55.7 76.4;" xml:space="preserve">
<style type="text/css">
	.st0{fill:#38718E;}
</style>
<g>
	<g>
		<g>
			<g>
				<path class="st0" d="M38.7,0.2c-0.1-0.1-0.2-0.1-0.3-0.2C38.4,0,38.3,0,38.2,0H2.1C0.9,0,0,0.9,0,2.1v72.2
					c0,1.1,0.9,2.1,2.1,2.1h51.6c1.1,0,2.1-0.9,2.1-2.1V17.6c0-0.1,0-0.2-0.1-0.3c0-0.1-0.1-0.2-0.2-0.3L38.7,0.2z M39,2.7L53,16.8
					H39V2.7z M1.6,74.8V1.6h35.8v16c0,0.4,0.4,0.8,0.8,0.8h16l0,56.4H1.6z"/>
				<path class="st0" d="M42.6,49.1c0.3-0.3,0.3-0.8,0-1.1c-0.3-0.3-0.8-0.3-1.1,0L28.7,60.8v-29c0-0.4-0.4-0.8-0.8-0.8
					c-0.4,0-0.8,0.4-0.8,0.8v29L14.2,47.9c-0.2-0.2-0.4-0.2-0.6-0.2s-0.4,0.1-0.6,0.2c-0.3,0.3-0.3,0.8,0,1.1l14.2,14.2
					c0.1,0.1,0.2,0.1,0.3,0.2c0.2,0.1,0.4,0.1,0.6,0c0.1,0,0.2-0.1,0.3-0.2L42.6,49.1z"/>
			</g>
		</g>
	</g>
</g>
</svg>
