<?xml version="1.0" encoding="utf-8"?>
<!-- Generator: Adobe Illustrator 21.0.0, SVG Export Plug-In . SVG Version: 6.00 Build 0)  -->
<svg version="1.1" id="Слой_1" xmlns="http://www.w3.org/2000/svg" xmlns:xlink="http://www.w3.org/1999/xlink" x="0px" y="0px"
	 viewBox="0 0 30.9 35" style="enable-background:new 0 0 30.9 35;" xml:space="preserve">
<style type="text/css">
	.st0{fill:#38718E;}
</style>
<g>
	<g>
		<path class="st0" d="M15.4,0c-0.4,0-0.7,0.3-0.7,0.7v25.7l-5.3-5.3c-0.3-0.3-0.7-0.3-1,0c-0.3,0.3-0.3,0.7,0,1l6.5,6.5
			c0.1,0.1,0.3,0.2,0.5,0.2s0.4-0.1,0.5-0.2l6.5-6.5c0.3-0.3,0.3-0.7,0-1c-0.3-0.3-0.7-0.3-1,0l-5.3,5.3V0.7C16.1,0.3,15.8,0,15.4,0
			z"/>
		<path class="st0" d="M0.7,26.2c-0.4,0-0.7,0.3-0.7,0.7v7.3C0,34.7,0.3,35,0.7,35h29.4c0.4,0,0.7-0.3,0.7-0.7v-7.3
			c0-0.4-0.3-0.7-0.7-0.7s-0.7,0.3-0.7,0.7v6.6h-28v-6.6C1.4,26.5,1.1,26.2,0.7,26.2z"/>
	</g>
</g>
</svg>
