<?xml version="1.0" encoding="utf-8"?>
<!-- Generator: Adobe Illustrator 21.0.0, SVG Export Plug-In . SVG Version: 6.00 Build 0)  -->
<svg version="1.1" id="Слой_1" xmlns="http://www.w3.org/2000/svg" xmlns:xlink="http://www.w3.org/1999/xlink" x="0px" y="0px"
	 viewBox="0 0 30.9 34.3" style="enable-background:new 0 0 30.9 34.3;" xml:space="preserve">
<style type="text/css">
	.st0{fill:#38718E;}
</style>
<g>
	<g>
		<path class="st0" d="M24.1,23.3c-0.3-0.1-0.6,0-0.7,0.3c-1.4,3.2-4.5,5.2-7.9,5.2c-3.4,0-6.4-1.9-7.9-5c1.4-3,4.5-5,7.9-5
			c2.4,0,4.8,1,6.4,2.8c0.2,0.2,0.5,0.2,0.7,0c0.2-0.2,0.2-0.5,0-0.7c-1.8-2-4.5-3.2-7.2-3.2c-3.9,0-7.3,2.3-8.9,5.8
			c-0.1,0.1-0.1,0.3,0,0.4c1.6,3.5,5.1,5.8,8.9,5.8s7.3-2.3,8.9-5.8C24.4,23.7,24.3,23.4,24.1,23.3z"/>
		<path class="st0" d="M11.8,23.8c0,2,1.6,3.7,3.7,3.7s3.7-1.6,3.7-3.7s-1.6-3.7-3.7-3.7S11.8,21.8,11.8,23.8z M18,23.8
			c0,1.4-1.2,2.6-2.6,2.6s-2.6-1.2-2.6-2.6c0-1.4,1.2-2.6,2.6-2.6S18,22.4,18,23.8z"/>
	</g>
	<g>
		<g>
			<g>
				<path class="st0" d="M29.2,13.8h-0.6V0.5c0-0.3-0.2-0.5-0.5-0.5h-23C4.8,0,4.6,0.2,4.6,0.5v1.8H2.8c-0.3,0-0.5,0.2-0.5,0.5v6.4
					H1.7C0.7,9.2,0,9.9,0,10.8v21.8c0,0.9,0.7,1.7,1.7,1.7h27.5c0.9,0,1.7-0.7,1.7-1.7V15.4C30.9,14.5,30.1,13.8,29.2,13.8z
					 M3.3,3.3h4.2C7.8,3.3,8,3.1,8,2.8S7.8,2.3,7.5,2.3H5.6V1h22v12.8h-1.3v-11c0-0.3-0.2-0.5-0.5-0.5H9.5C9.2,2.3,9,2.5,9,2.8
					s0.2,0.5,0.5,0.5h15.8v10.5h-13l-2.2-4.3C10,9.3,9.9,9.2,9.7,9.2H3.3V3.3z M29.8,32.6c0,0.4-0.3,0.6-0.6,0.6H1.7
					C1.3,33.3,1,33,1,32.6V10.8c0-0.4,0.3-0.6,0.6-0.6h7.7l2.2,4.3c0.1,0.2,0.3,0.3,0.4,0.3h17.2c0.4,0,0.6,0.3,0.6,0.6L29.8,32.6
					L29.8,32.6z"/>
				<path class="st0" d="M17.7,11.3h4.6c0.3,0,0.5-0.2,0.5-0.5V6.2c0-0.3-0.2-0.5-0.5-0.5h-4.6c-0.3,0-0.5,0.2-0.5,0.5v4.6
					C17.2,11.1,17.4,11.3,17.7,11.3z M18.2,6.7h3.6v3.6h-3.6V6.7z"/>
				<path class="st0" d="M15.9,6.2c0-0.3-0.2-0.5-0.5-0.5H6.2C6,5.7,5.7,6,5.7,6.2S6,6.7,6.2,6.7h9.2C15.7,6.7,15.9,6.5,15.9,6.2z"
					/>
			</g>
		</g>
	</g>
</g>
</svg>
