<?xml version="1.0" encoding="utf-8"?>
<!-- Generator: Adobe Illustrator 21.0.0, SVG Export Plug-In . SVG Version: 6.00 Build 0)  -->
<svg version="1.1" id="Слой_1" xmlns="http://www.w3.org/2000/svg" xmlns:xlink="http://www.w3.org/1999/xlink" x="0px" y="0px"
	 viewBox="0 0 4 24.2" style="enable-background:new 0 0 4 24.2;" xml:space="preserve">
<style type="text/css">
	.st0{fill:#38718E;}
</style>
<g>
	<g>
		<path class="st0" d="M0.2,0.9c0.2-0.3,0.4-0.5,0.7-0.7C1.2,0.1,1.6,0,2,0c0.4,0,0.8,0.1,1.1,0.2s0.5,0.4,0.7,0.7
			C3.9,1.2,4,1.6,4,1.9v0.4c0,0.6-0.2,1-0.5,1.4C3.1,4.1,2.6,4.2,2,4.2C1.6,4.2,1.2,4.2,0.9,4C0.6,3.8,0.4,3.6,0.2,3.3
			C0.1,3,0,2.7,0,2.3V1.9C0,1.6,0.1,1.2,0.2,0.9z"/>
	</g>
	<g>
		<path class="st0" d="M0.2,10.9c0.2-0.3,0.4-0.5,0.7-0.7C1.2,10.1,1.6,10,2,10c0.4,0,0.8,0.1,1.1,0.2s0.5,0.4,0.7,0.7
			c0.2,0.3,0.2,0.6,0.2,1v0.4c0,0.6-0.2,1-0.5,1.4c-0.4,0.4-0.8,0.5-1.5,0.5c-0.4,0-0.8-0.1-1.1-0.2c-0.3-0.2-0.5-0.4-0.7-0.7
			C0.1,13,0,12.7,0,12.3v-0.4C0,11.6,0.1,11.2,0.2,10.9z"/>
	</g>
	<g>
		<path class="st0" d="M0.2,20.9c0.2-0.3,0.4-0.5,0.7-0.7C1.2,20.1,1.6,20,2,20c0.4,0,0.8,0.1,1.1,0.2s0.5,0.4,0.7,0.7
			c0.2,0.3,0.2,0.6,0.2,1v0.4c0,0.6-0.2,1-0.5,1.4c-0.4,0.4-0.8,0.5-1.5,0.5c-0.4,0-0.8-0.1-1.1-0.2c-0.3-0.2-0.5-0.4-0.7-0.7
			C0.1,23,0,22.7,0,22.3v-0.4C0,21.6,0.1,21.2,0.2,20.9z"/>
	</g>
</g>
</svg>
